Une introduction au WebScraping
…
.panel[.panel-name[Canada]
.details[

```r
"https://en.wikipedia.org/wiki/List_of_Canadian_federal_general_elections" %>%
  xml2::read_html() %>%
  rvest::html_table() %>%
  purrr::chuck(3)
```

```
#> # A tibble: 44 × 15
#>    No.    Year Summary   Government Government `Official oppos… `Official oppos…
#>    <chr> <int> <chr>     <lgl>      <chr>      <lgl>            <chr>           
#>  1 1st    1867 "Liberal… NA         100[2]     NA               62              
#>  2 2nd    1872 "Conserv… NA         100[3]     NA               95              
#>  3 3rd    1874 "Liberal… NA         129        NA               65[2]           
#>  4 4th    1878 "Conserv… NA         134[2]     NA               63              
#>  5 5th    1882 "Conserv… NA         134[4]     NA               73              
#>  6 6th    1887 "Conserv… NA         124[4]     NA               80              
#>  7 7th    1891 "Conserv… NA         118[4]     NA               90              
#>  8 8th    1896 "Liberal… NA         117        NA               86[2]           
#>  9 9th    1900 "Liberal… NA         128        NA               79[2]           
#> 10 10th   1904 "Liberal… NA         137        NA               75[2]           
#> # … with 34 more rows, and 8 more variables: Third party <chr>,
#> #   Third party <chr>, Fourth party <chr>, Fourth party <chr>,
#> #   Fifth party <chr>, Fifth party <chr>, Other <int>, Total seats <int>
```
…
